[gd_scene load_steps=6 format=2]

[ext_resource path="res://instances/Root/Root.gd" type="Script" id=1]
[ext_resource path="res://levels/TitleScreen/TitleScreen.tscn" type="PackedScene" id=2]
[ext_resource path="res://music/37_Catacombs.ogg" type="AudioStream" id=3]
[ext_resource path="res://instances/ScreenEffects/ScreenEffects.tscn" type="PackedScene" id=4]
[ext_resource path="res://instances/Soundboard/Soundboard.tscn" type="PackedScene" id=5]

[node name="Root" type="Node"]
pause_mode = 2
script = ExtResource( 1 )
starting_scene = ExtResource( 2 )

[node name="Music" type="AudioStreamPlayer" parent="."]
pause_mode = 2
stream = ExtResource( 3 )
autoplay = true
bus = "Music"

[node name="ScreenEffects" parent="." instance=ExtResource( 4 )]

[node name="Soundboard" parent="." instance=ExtResource( 5 )]
