[gd_scene load_steps=2 format=2]

[ext_resource path="res://levels/YouDiedScreen/YouDiedScreen.gd" type="Script" id=1]

[node name="Level" type="Node"]
script = ExtResource( 1 )

[node name="ColorRect" type="ColorRect" parent="."]
anchor_right = 1.0
anchor_bottom = 1.0
color = Color( 1, 0, 0, 1 )

[node name="ResetTimer" type="Timer" parent="."]
process_mode = 0
wait_time = 3.0
one_shot = true
[connection signal="timeout" from="ResetTimer" to="." method="_on_ResetTimer_timeout"]
