[gd_scene load_steps=3 format=2]

[ext_resource path="res://levels/EndScreen/EndScreen.gd" type="Script" id=1]
[ext_resource path="res://art/EndCredits/End Screen-01.png" type="Texture" id=2]

[node name="EndScreen" type="Node"]
script = ExtResource( 1 )

[node name="TextureRect" type="TextureRect" parent="."]
anchor_right = 1.0
anchor_bottom = 1.0
grow_horizontal = 2
grow_vertical = 2
texture = ExtResource( 2 )
expand = true
stretch_mode = 6
